22

H          1.02809        0.40530       -1.64915
C          0.65980       -0.45212       -1.07360
N          1.84016       -1.25002       -0.66952
H          1.50540       -2.09562       -0.20293
H          2.40700       -0.74197        0.00267
C         -0.19150        0.04151        0.13233
H         -0.56645       -0.83481        0.67896
C         -1.41566        0.83179       -0.36209
H         -2.05981        1.13608        0.46797
H         -2.04317        0.23006       -1.02638
H         -1.10943        1.73185       -0.90571
C          0.64430        0.89980        1.11327
H          1.50081        0.32314        1.47731
H          1.04894        1.77522        0.59082
C         -0.12190        1.36590        2.34562
H          0.56448        1.84339        3.05281
H         -0.59817        0.52212        2.85458
H         -0.88954        2.10229        2.09230
C         -0.18949       -1.30825       -2.02860
O         -0.68913       -0.94294       -3.08130
O         -0.40848       -2.56257       -1.56843
H         -0.93220       -2.97773       -2.28464
