17

O          2.65669       -1.21425       -0.01148
C          1.73103       -0.71566       -0.63347
O          1.97135       -0.00165       -1.75283
C          0.25334       -0.73716       -0.24883
N         -0.07560       -2.02797        0.39440
C         -0.02017        0.45821        0.66109
H          0.24349        0.24987        1.70507
H          0.58509        1.32479        0.36571
C         -1.47637        0.83383        0.59664
O         -2.35000        0.20923        1.18796
N         -1.78403        1.89314       -0.20070
H         -1.09567        2.46083       -0.67487
H         -2.75669        2.16936       -0.25582
H          2.93782       -0.10586       -1.88633
H         -0.33522       -0.67963       -1.17237
H         -1.00619       -1.96081        0.81569
H          0.57334       -2.18976        1.16752
