17

C         -0.31203        0.02990       -2.09091
C         -0.29937       -0.55741       -0.68182
C         -0.02696        0.51896        0.38890
N          1.40862        0.93258        0.38453
O          0.72081       -1.56518       -0.63709
C         -0.41324        0.00811        1.77996
O          0.33067       -0.07627        2.74690
O         -1.72050       -0.29310        1.90195
H         -0.50231       -0.75837       -2.82748
H          0.65731        0.46925       -2.35088
H         -1.08462        0.79750       -2.19490
H         -1.25530       -1.05987       -0.50038
H         -0.63773        1.40984        0.20081
H          1.93003        0.18538        0.85685
H          1.50122        1.71693        1.03540
H          1.55730       -1.09687       -0.82320
H         -1.80639       -0.59768        2.83088
